# UnrealEd OBJ exporter (_Internal)



v -17.526562 -29.709759 -45.653889

v -17.266478 -31.842979 -44.884850

v -17.686195 -30.776365 -45.171402

v -16.379871 -32.623791 -44.871014

v -16.830349 -28.928944 -46.203022

v -15.784109 -28.643148 -46.671677

v -15.263938 -32.909588 -45.133595

v -14.668178 -28.928944 -46.934258

v -14.217698 -32.623791 -45.602249

v -13.521484 -31.842978 -46.151382

v -13.781570 -29.709757 -46.920422

v -13.361851 -30.776367 -46.633869

v 2.038934 73.347229 0.961908

v 0.431211 69.877068 1.275011

v 0.400558 73.046394 1.184371

v 3.947618 70.522728 0.797539

v 3.439595 74.169121 1.394233

v 0.497631 65.619064 1.471410

v 6.953831 72.286743 1.725436

v 4.227239 75.291847 2.365507

v 6.392547 66.336937 0.920316

v 8.644329 74.696434 3.810056

v 4.190808 76.414581 3.615473

v 11.583503 68.298195 3.105853

v 10.011372 49.763344 5.441575

v 2.036987 49.228409 6.023122

v 0.892168 30.042995 2.638021

v 17.132978 51.224823 8.812341

v 8.826270 29.474312 2.049684

v -4.235001 7.908267 -12.522356

v 14.679582 70.977333 7.442398

v 3.584548 6.637552 -13.449411

v -9.161745 -7.870362 -27.090136

v 8.566139 77.106110 6.492831

v 3.340073 77.236473 4.809213

v 6.740225 78.870132 9.054926

v 1.902983 77.537300 5.626853

v 14.851186 73.656471 12.767979

v 21.493578 53.221249 15.232208

v 12.052341 75.617744 17.655622

v 21.924742 55.217659 22.980991

v 3.655834 79.515808 10.809814

v 0.139422 78.870132 11.287281

v 0.264608 77.236473 5.849319

v 7.032998 76.335625 20.795671

v -2.866788 77.106125 10.359385

v -1.136055 76.414581 5.416991

v 1.138079 75.617744 21.346767

v -4.052875 73.656487 19.161226

v -4.557281 74.696442 8.274769

v -1.923694 75.291847 4.445719

v -7.148949 70.977341 14.824685

v -4.479096 72.286751 5.591988

v -1.887267 74.169121 3.195749

v -7.320554 68.298203 9.499100

v -2.653182 70.522743 3.029898

v -1.036531 73.347229 2.002013

v -4.521711 66.336937 4.611466

v 0.431211 69.877068 1.275011

v 0.400558 73.046394 1.184371

v 0.497631 65.619064 1.471410

v -4.653445 49.763351 10.401144

v 2.036987 49.228409 6.023122

v 0.892168 30.042995 2.638021

v -8.267237 51.224834 17.402555

v -5.770374 29.474310 6.986193

v -4.235001 7.908267 -12.522356

v -7.836069 53.221245 25.151335

v -11.012094 6.637547 -8.512898

v -9.161745 -7.870362 -27.090136

v -3.475475 55.217670 31.571205

v -15.524376 -9.429601 -23.796362

v 3.646128 56.679138 34.941959

v -14.930821 3.165884 -2.495372

v -9.376139 27.920639 13.929109

v -8.958963 25.798288 21.606422

v -14.941158 -1.576497 3.917836

v -4.630629 23.675938 27.960999

v -11.040336 -6.318874 9.008311

v 2.449090 22.122267 31.290142

v -4.273579 -9.790538 11.412066

v -16.902199 -25.327822 -11.686764

v 11.620516 57.214085 34.360424

v 10.383194 21.553585 30.701805

v 18.310951 56.679138 29.982403

v 17.045740 22.122267 26.353638

v 20.651506 23.675936 19.410715

v 10.323072 -9.790536 6.475560

v 3.545974 -11.061255 10.485014

v 20.234335 25.798285 11.733404

v 14.241800 -6.318873 0.458032

v -3.988119 -31.146971 -11.792373

v 2.374515 -29.587738 -15.086145

v -11.043885 -29.587736 -10.548114

v -8.717665 -38.288086 -25.777067

v -15.187540 -36.773613 -24.515690

v -2.810262 -36.773609 -28.701614

v -13.018968 -37.830570 -38.495491

v -20.486286 -32.635971 -25.255447

v 6.339151 -25.327822 -19.546867

v -16.907961 -36.834576 -37.580387

v 14.252139 -1.576494 -5.955180

v -16.379871 -32.623791 -44.871014

v -15.263938 -32.909588 -45.133595

v -17.266478 -31.842979 -44.884850

v -14.217698 -32.623791 -45.602249

v -19.997768 -34.113457 -37.628609

v -17.686195 -30.776365 -45.171402

v -9.372840 -36.834576 -40.128723

v -13.521484 -31.842978 -46.151382

v -21.460472 -30.396341 -38.627224

v -17.526562 -29.709759 -45.653889

v -6.946555 -34.113457 -42.042458

v -13.361851 -30.776367 -46.633869

v 0.951783 -32.635975 -32.505692

v -6.390233 -30.396341 -43.723900

v -13.781570 -29.709757 -46.920422

v 6.843471 -19.508667 -23.979286

v 1.560436 -26.983868 -36.170006

v -7.852943 -26.679226 -44.722527

v -10.942752 -23.958115 -44.770748

v -14.668178 -28.928944 -46.934258

v -1.147398 -21.331753 -38.712708

v -14.831743 -22.962120 -43.855640

v -15.784109 -28.643148 -46.671677

v -6.446152 -17.194122 -39.452477

v -12.916026 -15.679646 -38.191093

v -2.105981 -9.429599 -28.334400

v 3.752336 -13.689510 -27.195751

v 10.351310 3.165892 -11.045661

v 15.905993 27.920645 5.378822

v -23.194117 -26.983866 -27.798145

v -20.904154 -26.679228 -40.308678

v -19.993330 -19.508669 -14.903224

v -19.489012 -13.689520 -19.335649

v -22.585470 -21.331762 -31.462465

v -18.823423 -17.194128 -35.266541

v -12.916026 -15.679646 -38.191093

v -14.831743 -22.962120 -43.855640

v -18.477869 -23.958120 -42.222408

v -16.830349 -28.928944 -46.203022

v -15.784109 -28.643148 -46.671677

v 0.400558 73.046394 1.184371

v -1.637216 77.954163 -4.841083

v -0.003324 78.268967 -5.076805

v 2.038934 73.347229 0.961908

v -1.946137 80.873779 -5.754529

v 1.385083 79.129021 -4.680714

v 3.439595 74.169121 1.394233

v -1.180703 81.021255 -5.864957

v 2.155989 80.303886 -3.758931

v 4.227239 75.291847 2.365507

v -0.530272 81.424171 -5.679402

v 2.102818 81.478752 -2.558465

v 4.190808 76.414581 3.615473

v -0.169124 81.974564 -5.247571

v -0.194032 82.524948 -4.685184

v -0.598319 82.927872 -4.142921

v 1.239829 82.338806 -1.400956

v 3.340073 77.236473 4.809213

v -1.273657 83.075348 -3.766088

v -0.201744 82.653610 -0.596573

v 1.902983 77.537300 5.626853

v 0.264608 77.236473 5.849319

v -1.835637 82.338806 -0.360850

v -1.136055 76.414581 5.416991

v -2.039092 82.927872 -3.655659

v -3.224045 81.478752 -0.756946

v -1.923694 75.291847 4.445719

v -2.621476 81.021255 -5.377696

v -3.994945 80.303886 -1.678718

v -1.887267 74.169121 3.195749

v -2.689525 82.524956 -3.841221

v -3.025764 81.424171 -4.835441

v -3.050671 81.974564 -4.273048

v -3.941779 79.129021 -2.879198

v -1.036531 73.347229 2.002013

v -3.078789 78.268967 -4.036699

v 0.400558 73.046394 1.184371

v -1.637216 77.954163 -4.841083



vt 0.433350 0.154785

vt 0.430908 0.168945

vt 0.430908 0.161621

vt 0.433350 0.175781

vt 0.437744 0.150879

vt 0.442871 0.150879

vt 0.437744 0.179688

vt 0.447266 0.154785

vt 0.442871 0.179688

vt 0.447266 0.175781

vt 0.449707 0.161621

vt 0.449707 0.168945

vt 0.354004 0.250488

vt 0.354736 0.273438

vt 0.344727 0.256348

vt 0.372559 0.261230

vt 0.361328 0.242188

vt 0.370361 0.293457

vt 0.385498 0.248535

vt 0.366455 0.232910

vt 0.395020 0.273438

vt 0.394043 0.235840

vt 0.369629 0.223145

vt 0.411621 0.256348

vt 0.469482 0.305664

vt 0.454590 0.341309

vt 0.564453 0.358398

vt 0.477783 0.276367

vt 0.568359 0.323242

vt 0.708008 0.360840

vt 0.422607 0.241211

vt 0.702637 0.327148

vt 0.819824 0.333984

vt 0.399414 0.224609

vt 0.371094 0.213379

vt 0.402344 0.213867

vt 0.370605 0.203613

vt 0.429443 0.228027

vt 0.481934 0.253418

vt 0.433105 0.215820

vt 0.484131 0.234863

vt 0.403076 0.203613

vt 0.402344 0.193359

vt 0.371094 0.193848

vt 0.434570 0.203613

vt 0.399414 0.182617

vt 0.369629 0.184082

vt 0.433105 0.191895

vt 0.429443 0.179199

vt 0.394043 0.171387

vt 0.366455 0.174316

vt 0.422607 0.166016

vt 0.385498 0.159180

vt 0.361328 0.165039

vt 0.411621 0.151367

vt 0.372559 0.146484

vt 0.354004 0.157227

vt 0.395020 0.134277

vt 0.354736 0.134277

vt 0.344727 0.150879

vt 0.370361 0.113770

vt 0.469482 0.102051

vt 0.454590 0.066406

vt 0.564453 0.049316

vt 0.477783 0.131348

vt 0.568359 0.084473

vt 0.708008 0.046387

vt 0.481934 0.154297

vt 0.702637 0.080566

vt 0.819824 0.073730

vt 0.484131 0.172852

vt 0.804688 0.102539

vt 0.485107 0.188965

vt 0.697754 0.110352

vt 0.571289 0.115234

vt 0.572266 0.141113

vt 0.693848 0.136719

vt 0.573242 0.163574

vt 0.691406 0.160645

vt 0.573242 0.184082

vt 0.689453 0.182617

vt 0.781738 0.168945

vt 0.485352 0.203613

vt 0.573730 0.203613

vt 0.485107 0.218750

vt 0.573242 0.223145

vt 0.573242 0.243652

vt 0.689453 0.225098

vt 0.688965 0.203613

vt 0.572266 0.266113

vt 0.691406 0.247070

vt 0.778320 0.203613

vt 0.779297 0.220703

vt 0.779297 0.187012

vt 0.817871 0.203613

vt 0.819336 0.189941

vt 0.819336 0.217285

vt 0.851074 0.203613

vt 0.823242 0.176270

vt 0.781738 0.238281

vt 0.852539 0.194336

vt 0.693848 0.270996

vt 0.887207 0.198730

vt 0.887207 0.203613

vt 0.888672 0.194336

vt 0.887207 0.208496

vt 0.855957 0.184570

vt 0.891602 0.189941

vt 0.852539 0.213379

vt 0.888672 0.213379

vt 0.861816 0.175293

vt 0.895996 0.186035

vt 0.855957 0.222656

vt 0.891602 0.217773

vt 0.823242 0.230957

vt 0.861816 0.231934

vt 0.895996 0.221680

vt 0.786133 0.257813

vt 0.830566 0.245605

vt 0.871582 0.241699

vt 0.885254 0.250000

vt 0.901367 0.224609

vt 0.842285 0.260742

vt 0.904785 0.256836

vt 0.907715 0.226074

vt 0.858887 0.277344

vt 0.883789 0.296387

vt 0.804688 0.304688

vt 0.793457 0.279297

vt 0.697754 0.297363

vt 0.571289 0.292480

vt 0.830566 0.162109

vt 0.871582 0.166016

vt 0.786133 0.149902

vt 0.793457 0.127930

vt 0.842285 0.146484

vt 0.858887 0.129883

vt 0.883789 0.110840

vt 0.904785 0.150879

vt 0.885254 0.157227

vt 0.901367 0.183105

vt 0.907715 0.181641

vt 0.468262 0.150879

vt 0.430908 0.106934

vt 0.441895 0.103516

vt 0.474365 0.139160

vt 0.438232 0.075684

vt 0.448975 0.098633

vt 0.480225 0.127441

vt 0.441895 0.080566

vt 0.453613 0.093750

vt 0.485352 0.115723

vt 0.445313 0.082520

vt 0.457031 0.087891

vt 0.489258 0.103027

vt 0.447998 0.082031

vt 0.450195 0.080566

vt 0.451416 0.078125

vt 0.458984 0.082031

vt 0.491943 0.089844

vt 0.451660 0.075684

vt 0.459717 0.075684

vt 0.492676 0.075684

vt 0.491943 0.062012

vt 0.458984 0.068848

vt 0.489502 0.048340

vt 0.451172 0.072754

vt 0.457031 0.062988

vt 0.485596 0.035645

vt 0.442139 0.069824

vt 0.453857 0.057129

vt 0.480713 0.023926

vt 0.449951 0.069824

vt 0.445557 0.067871

vt 0.448242 0.068359

vt 0.449219 0.051758

vt 0.475098 0.012207

vt 0.442139 0.047363

vt 0.468994 0.000488

vt 0.430908 0.043457



vn -0.637795 -0.110236 -0.763780

vn -0.566929 -0.496063 -0.661417

vn -0.653543 -0.314961 -0.692913

vn -0.417323 -0.606299 -0.677165

vn -0.519685 0.055118 -0.850394

vn -0.314961 0.118110 -0.937008

vn -0.244094 -0.645669 -0.716535

vn -0.102362 0.055118 -0.992126

vn -0.078740 -0.606299 -0.787402

vn 0.047244 -0.496063 -0.866142

vn 0.047244 -0.110236 -0.992126

vn 0.094488 -0.314961 -0.944882

vn 0.173228 -0.322835 -0.929134

vn -0.322835 -0.055118 -0.944882

vn -0.291339 -0.433071 -0.850394

vn 0.078740 0.047244 -0.992126

vn 0.535433 -0.015748 -0.842520

vn -0.314961 -0.181102 -0.929134

vn 0.377953 0.283465 -0.881890

vn 0.692913 0.362205 -0.622047

vn 0.181102 -0.102362 -0.976378

vn 0.511811 0.559055 -0.653543

vn 0.629921 0.700787 -0.338583

vn 0.590551 0.102362 -0.803150

vn 0.220472 -0.031496 -0.976378

vn -0.322835 -0.047244 -0.944882

vn -0.291339 0.393701 -0.874016

vn 0.685039 0.023622 -0.732283

vn 0.228346 0.330709 -0.913386

vn -0.244094 0.645669 -0.724409

vn 0.811024 0.354331 -0.464567

vn 0.259843 0.551181 -0.787402

vn -0.204724 0.771654 -0.606299

vn 0.472441 0.795276 -0.385827

vn 0.385827 0.921260 -0.078740

vn 0.283465 0.944882 -0.149606

vn 0.031496 0.992126 0.094488

vn 0.811024 0.590551 -0.055118

vn 0.944882 0.094488 -0.299213

vn 0.582677 0.748031 0.314961

vn 0.968504 0.173228 0.196850

vn 0.000000 1.000000 0.007874

vn -0.322835 0.944882 0.055118

vn -0.354331 0.921260 0.165354

vn 0.188976 0.811024 0.559055

vn -0.614173 0.795276 -0.023622

vn -0.700787 0.700787 0.110236

vn -0.267717 0.748031 0.606299

vn -0.677165 0.590551 0.448819

vn -0.803150 0.559055 -0.212598

vn -0.929134 0.362205 -0.070866

vn -0.929134 0.354331 0.125984

vn -0.834646 0.283465 -0.472441

vn -0.937008 -0.015748 -0.346457

vn -0.952756 0.102362 -0.283465

vn -0.661417 0.047244 -0.748031

vn -0.700787 -0.322835 -0.637795

vn -0.732283 -0.102362 -0.669291

vn -0.322835 -0.055118 -0.944882

vn -0.291339 -0.433071 -0.850394

vn -0.314961 -0.181102 -0.929134

vn -0.763780 -0.031496 -0.637795

vn -0.322835 -0.047244 -0.944882

vn -0.291339 0.393701 -0.874016

vn -0.984252 0.023622 -0.165354

vn -0.740157 0.330709 -0.582677

vn -0.244094 0.645669 -0.724409

vn -0.937008 0.094488 0.338583

vn -0.685039 0.551181 -0.472441

vn -0.204724 0.771654 -0.606299

vn -0.645669 0.173228 0.740157

vn -0.661417 0.653543 -0.362205

vn -0.196850 0.236220 0.952756

vn -0.944882 0.307087 -0.086614

vn -0.976378 0.173228 -0.133858

vn -0.937008 -0.015748 0.354331

vn -0.944882 -0.031496 0.314961

vn -0.645669 -0.181102 0.740157

vn -0.692913 -0.354331 0.629921

vn -0.188976 -0.299213 0.937008

vn -0.251969 -0.582677 0.771654

vn -0.724409 -0.448819 0.519685

vn 0.307087 0.267717 0.913386

vn 0.299213 -0.338583 0.889764

vn 0.732283 0.236220 0.637795

vn 0.724409 -0.299213 0.629921

vn 0.960630 -0.181102 0.196850

vn 0.669291 -0.582677 0.464567

vn 0.244094 -0.661417 0.708661

vn 0.960630 -0.015748 -0.283465

vn 0.929134 -0.354331 0.086614

vn 0.173228 -0.834646 0.519685

vn 0.614173 -0.732283 0.291339

vn -0.314961 -0.732283 0.606299

vn 0.070866 -0.976378 0.204724

vn -0.401575 -0.866142 0.299213

vn 0.503937 -0.866142 0.000000

vn -0.094488 -0.952756 -0.275591

vn -0.787402 -0.559055 0.259843

vn 0.897638 -0.448819 -0.031496

vn -0.464567 -0.866142 -0.188976

vn 0.944882 -0.031496 -0.322835

vn -0.417323 -0.606299 -0.677165

vn -0.244094 -0.645669 -0.716535

vn -0.566929 -0.496063 -0.661417

vn -0.078740 -0.606299 -0.787402

vn -0.771654 -0.606299 -0.181102

vn -0.653543 -0.314961 -0.692913

vn 0.259843 -0.866142 -0.433071

vn 0.047244 -0.496063 -0.866142

vn -0.929134 -0.244094 -0.267717

vn -0.637795 -0.110236 -0.763780

vn 0.503937 -0.606299 -0.614173

vn 0.094488 -0.314961 -0.944882

vn 0.787402 -0.559055 -0.267717

vn 0.574803 -0.244094 -0.779528

vn 0.047244 -0.110236 -0.992126

vn 0.937008 -0.047244 -0.354331

vn 0.842520 -0.125984 -0.519685

vn 0.456693 0.141732 -0.881890

vn 0.141732 0.448819 -0.881890

vn -0.102362 0.055118 -0.992126

vn 0.653543 0.307087 -0.692913

vn -0.267717 0.559055 -0.787402

vn -0.314961 0.118110 -0.937008

vn 0.267717 0.629921 -0.732283

vn -0.212598 0.748031 -0.629921

vn 0.299213 0.653543 -0.692913

vn 0.716535 0.354331 -0.598425

vn 0.700787 0.307087 -0.645669

vn 0.692913 0.173228 -0.700787

vn -0.984252 -0.125984 0.094488

vn -0.897638 0.141732 -0.425197

vn -0.960630 -0.047244 0.283465

vn -0.937008 0.354331 -0.039370

vn -0.937008 0.307087 -0.149606

vn -0.661417 0.629921 -0.417323

vn -0.212598 0.748031 -0.629921

vn -0.267717 0.559055 -0.787402

vn -0.653543 0.448819 -0.614173

vn -0.519685 0.055118 -0.850394

vn -0.314961 0.118110 -0.937008

vn -0.291339 -0.433071 -0.850394

vn -0.259843 -0.582677 -0.771654

vn 0.228346 -0.480315 -0.842520

vn 0.173228 -0.322835 -0.929134

vn -0.314961 0.149606 -0.937008

vn 0.637795 -0.196850 -0.748031

vn 0.535433 -0.015748 -0.842520

vn -0.031496 0.212598 -0.976378

vn 0.850394 0.181102 -0.496063

vn 0.692913 0.362205 -0.622047

vn 0.196850 0.370079 -0.905512

vn 0.818898 0.551181 -0.165354

vn 0.629921 0.700787 -0.338583

vn 0.314961 0.574803 -0.755906

vn 0.291339 0.771654 -0.566929

vn 0.141732 0.913386 -0.385827

vn 0.551181 0.818898 0.149606

vn 0.385827 0.921260 -0.078740

vn -0.086614 0.960630 -0.259843

vn 0.125984 0.921260 0.377953

vn 0.031496 0.992126 0.094488

vn -0.354331 0.921260 0.165354

vn -0.346457 0.818898 0.456693

vn -0.700787 0.700787 0.110236

vn -0.346457 0.913386 -0.220472

vn -0.748031 0.551181 0.362205

vn -0.929134 0.362205 -0.070866

vn -0.566929 0.212598 -0.795276

vn -0.976378 0.181102 0.125984

vn -0.937008 -0.015748 -0.346457

vn -0.574803 0.771654 -0.275591

vn -0.708661 0.370079 -0.606299

vn -0.708661 0.574803 -0.409449

vn -0.960630 -0.196850 -0.204724

vn -0.700787 -0.322835 -0.637795

vn -0.692913 -0.480315 -0.535433

vn -0.291339 -0.433071 -0.850394

vn -0.259843 -0.582677 -0.771654

f 1/1/1 2/2/2 3/3/3

f 2/2/2 1/1/1 4/4/4

f 5/5/5 4/4/4 1/1/1

f 6/6/6 4/4/4 5/5/5

f 4/4/4 6/6/6 7/7/7

f 8/8/8 7/7/7 6/6/6

f 7/7/7 8/8/8 9/9/9

f 8/8/8 10/10/10 9/9/9

f 10/10/10 8/8/8 11/11/11

f 10/10/10 11/11/11 12/12/12

f 13/13/13 14/14/14 15/15/15

f 14/14/14 13/13/13 16/16/16

f 16/16/16 13/13/13 17/17/17

f 16/16/16 18/18/18 14/14/14

f 19/19/19 16/16/16 17/17/17

f 19/19/19 17/17/17 20/20/20

f 18/18/18 16/16/16 21/21/21

f 19/19/19 21/21/21 16/16/16

f 20/20/20 22/22/22 19/19/19

f 23/23/23 22/22/22 20/20/20

f 21/21/21 19/19/19 24/24/24

f 24/24/24 19/19/19 22/22/22

f 25/25/25 18/18/18 21/21/21

f 18/18/18 25/25/25 26/26/26

f 25/25/25 27/27/27 26/26/26

f 28/28/28 21/21/21 24/24/24

f 21/21/21 28/28/28 25/25/25

f 27/27/27 25/25/25 29/29/29

f 28/28/28 29/29/29 25/25/25

f 29/29/29 30/30/30 27/27/27

f 31/31/31 28/28/28 24/24/24

f 31/31/31 24/24/24 22/22/22

f 30/30/30 29/29/29 32/32/32

f 32/32/32 33/33/33 30/30/30

f 31/31/31 22/22/22 34/34/34

f 23/23/23 34/34/34 22/22/22

f 35/35/35 34/34/34 23/23/23

f 34/34/34 35/35/35 36/36/36

f 37/37/37 36/36/36 35/35/35

f 38/38/38 31/31/31 34/34/34

f 36/36/36 38/38/38 34/34/34

f 38/38/38 39/39/39 31/31/31

f 28/28/28 31/31/31 39/39/39

f 38/38/38 36/36/36 40/40/40

f 39/39/39 38/38/38 41/41/41

f 41/41/41 38/38/38 40/40/40

f 36/36/36 37/37/37 42/42/42

f 42/42/42 40/40/40 36/36/36

f 37/37/37 43/43/43 42/42/42

f 43/43/43 37/37/37 44/44/44

f 40/40/40 42/42/42 45/45/45

f 44/44/44 46/46/46 43/43/43

f 46/46/46 44/44/44 47/47/47

f 48/48/48 42/42/42 43/43/43

f 42/42/42 48/48/48 45/45/45

f 49/49/49 43/43/43 46/46/46

f 43/43/43 49/49/49 48/48/48

f 47/47/47 50/50/50 46/46/46

f 50/50/50 47/47/47 51/51/51

f 46/46/46 52/52/52 49/49/49

f 52/52/52 46/46/46 50/50/50

f 51/51/51 53/53/53 50/50/50

f 53/53/53 51/51/51 54/54/54

f 50/50/50 55/55/55 52/52/52

f 55/55/55 50/50/50 53/53/53

f 54/54/54 56/56/56 53/53/53

f 56/56/56 54/54/54 57/57/57

f 53/53/53 58/58/58 55/55/55

f 58/58/58 53/53/53 56/56/56

f 59/59/59 57/57/57 60/60/60

f 57/57/57 59/59/59 56/56/56

f 61/61/61 56/56/56 59/59/59

f 56/56/56 61/61/61 58/58/58

f 61/61/61 62/62/62 58/58/58

f 62/62/62 61/61/61 63/63/63

f 64/64/64 62/62/62 63/63/63

f 58/58/58 65/65/65 55/55/55

f 65/65/65 58/58/58 62/62/62

f 65/65/65 52/52/52 55/55/55

f 62/62/62 64/64/64 66/66/66

f 66/66/66 65/65/65 62/62/62

f 67/67/67 66/66/66 64/64/64

f 52/52/52 65/65/65 68/68/68

f 68/68/68 49/49/49 52/52/52

f 66/66/66 67/67/67 69/69/69

f 67/67/67 70/70/70 69/69/69

f 49/49/49 68/68/68 71/71/71

f 71/71/71 48/48/48 49/49/49

f 69/69/69 70/70/70 72/72/72

f 48/48/48 71/71/71 73/73/73

f 74/74/74 66/66/66 69/69/69

f 69/69/69 72/72/72 74/74/74

f 65/65/65 66/66/66 75/75/75

f 74/74/74 75/75/75 66/66/66

f 76/76/76 65/65/65 75/75/75

f 65/65/65 76/76/76 68/68/68

f 77/77/77 75/75/75 74/74/74

f 77/77/77 76/76/76 75/75/75

f 68/68/68 78/78/78 71/71/71

f 78/78/78 68/68/68 76/76/76

f 78/78/78 73/73/73 71/71/71

f 79/79/79 76/76/76 77/77/77

f 79/79/79 78/78/78 76/76/76

f 73/73/73 78/78/78 80/80/80

f 81/81/81 78/78/78 79/79/79

f 81/81/81 80/80/80 78/78/78

f 77/77/77 82/82/82 79/79/79

f 80/80/80 83/83/83 73/73/73

f 83/83/83 48/48/48 73/73/73

f 48/48/48 83/83/83 45/45/45

f 83/83/83 40/40/40 45/45/45

f 83/83/83 80/80/80 84/84/84

f 81/81/81 84/84/84 80/80/80

f 40/40/40 83/83/83 85/85/85

f 41/41/41 40/40/40 85/85/85

f 83/83/83 86/86/86 85/85/85

f 86/86/86 83/83/83 84/84/84

f 85/85/85 87/87/87 41/41/41

f 87/87/87 85/85/85 86/86/86

f 87/87/87 39/39/39 41/41/41

f 84/84/84 88/88/88 86/86/86

f 88/88/88 87/87/87 86/86/86

f 84/84/84 81/81/81 89/89/89

f 88/88/88 84/84/84 89/89/89

f 39/39/39 87/87/87 90/90/90

f 90/90/90 28/28/28 39/39/39

f 87/87/87 88/88/88 91/91/91

f 91/91/91 90/90/90 87/87/87

f 92/92/92 88/88/88 89/89/89

f 81/81/81 92/92/92 89/89/89

f 93/93/93 91/91/91 88/88/88

f 88/88/88 92/92/92 93/93/93

f 92/92/92 81/81/81 94/94/94

f 79/79/79 94/94/94 81/81/81

f 94/94/94 79/79/79 82/82/82

f 94/94/94 95/95/95 92/92/92

f 95/95/95 93/93/93 92/92/92

f 82/82/82 96/96/96 94/94/94

f 95/95/95 94/94/94 96/96/96

f 93/93/93 95/95/95 97/97/97

f 96/96/96 98/98/98 95/95/95

f 98/98/98 97/97/97 95/95/95

f 96/96/96 82/82/82 99/99/99

f 97/97/97 100/100/100 93/93/93

f 100/100/100 91/91/91 93/93/93

f 99/99/99 101/101/101 96/96/96

f 98/98/98 96/96/96 101/101/101

f 100/100/100 102/102/102 91/91/91

f 90/90/90 91/91/91 102/102/102

f 103/103/103 98/98/98 101/101/101

f 98/98/98 103/103/103 104/104/104

f 101/101/101 105/105/105 103/103/103

f 106/106/106 98/98/98 104/104/104

f 105/105/105 101/101/101 107/107/107

f 101/101/101 99/99/99 107/107/107

f 107/107/107 108/108/108 105/105/105

f 98/98/98 106/106/106 109/109/109

f 97/97/97 98/98/98 109/109/109

f 109/109/109 106/106/106 110/110/110

f 108/108/108 107/107/107 111/111/111

f 111/111/111 112/112/112 108/108/108

f 110/110/110 113/113/113 109/109/109

f 113/113/113 110/110/110 114/114/114

f 109/109/109 115/115/115 97/97/97

f 115/115/115 109/109/109 113/113/113

f 100/100/100 97/97/97 115/115/115

f 114/114/114 116/116/116 113/113/113

f 117/117/117 116/116/116 114/114/114

f 115/115/115 118/118/118 100/100/100

f 118/118/118 102/102/102 100/100/100

f 113/113/113 119/119/119 115/115/115

f 118/118/118 115/115/115 119/119/119

f 119/119/119 113/113/113 116/116/116

f 116/116/116 117/117/117 120/120/120

f 120/120/120 119/119/119 116/116/116

f 117/117/117 121/121/121 120/120/120

f 121/121/121 117/117/117 122/122/122

f 119/119/119 120/120/120 123/123/123

f 121/121/121 123/123/123 120/120/120

f 124/124/124 122/122/122 125/125/125

f 122/122/122 124/124/124 121/121/121

f 126/126/126 121/121/121 124/124/124

f 123/123/123 121/121/121 126/126/126

f 127/127/127 126/126/126 124/124/124

f 33/33/33 126/126/126 127/127/127

f 126/126/126 33/33/33 128/128/128

f 128/128/128 123/123/123 126/126/126

f 33/33/33 32/32/32 128/128/128

f 129/129/129 119/119/119 123/123/123

f 123/123/123 128/128/128 129/129/129

f 119/119/119 129/129/129 118/118/118

f 130/130/130 128/128/128 32/32/32

f 128/128/128 130/130/130 129/129/129

f 129/129/129 130/130/130 118/118/118

f 118/118/118 130/130/130 102/102/102

f 29/29/29 130/130/130 32/32/32

f 131/131/131 102/102/102 130/130/130

f 130/130/130 29/29/29 131/131/131

f 102/102/102 131/131/131 90/90/90

f 29/29/29 28/28/28 131/131/131

f 28/28/28 90/90/90 131/131/131

f 107/107/107 132/132/132 111/111/111

f 132/132/132 107/107/107 99/99/99

f 132/132/132 133/133/133 111/111/111

f 112/112/112 111/111/111 133/133/133

f 99/99/99 134/134/134 132/132/132

f 134/134/134 99/99/99 82/82/82

f 82/82/82 77/77/77 134/134/134

f 74/74/74 134/134/134 77/77/77

f 134/134/134 74/74/74 135/135/135

f 135/135/135 132/132/132 134/134/134

f 135/135/135 74/74/74 72/72/72

f 132/132/132 135/135/135 136/136/136

f 72/72/72 136/136/136 135/135/135

f 133/133/133 132/132/132 136/136/136

f 136/136/136 72/72/72 137/137/137

f 70/70/70 137/137/137 72/72/72

f 138/138/138 137/137/137 70/70/70

f 139/139/139 137/137/137 138/138/138

f 136/136/136 140/140/140 133/133/133

f 140/140/140 136/136/136 137/137/137

f 140/140/140 112/112/112 133/133/133

f 137/137/137 139/139/139 140/140/140

f 112/112/112 140/140/140 141/141/141

f 141/141/141 140/140/140 139/139/139

f 139/139/139 142/142/142 141/141/141

f 143/143/143 144/144/144 145/145/145

f 143/143/143 145/145/145 146/146/146

f 147/147/147 145/145/145 144/144/144

f 146/146/146 145/145/145 148/148/148

f 148/148/148 149/149/149 146/146/146

f 145/145/145 147/147/147 150/150/150

f 150/150/150 148/148/148 145/145/145

f 149/149/149 148/148/148 151/151/151

f 151/151/151 152/152/152 149/149/149

f 148/148/148 150/150/150 153/153/153

f 153/153/153 151/151/151 148/148/148

f 152/152/152 151/151/151 154/154/154

f 154/154/154 155/155/155 152/152/152

f 151/151/151 153/153/153 156/156/156

f 151/151/151 156/156/156 157/157/157

f 153/153/153 157/157/157 156/156/156

f 157/157/157 154/154/154 151/151/151

f 157/157/157 153/153/153 158/158/158

f 158/158/158 154/154/154 157/157/157

f 150/150/150 158/158/158 153/153/153

f 155/155/155 154/154/154 159/159/159

f 154/154/154 158/158/158 159/159/159

f 159/159/159 160/160/160 155/155/155

f 150/150/150 161/161/161 158/158/158

f 161/161/161 159/159/159 158/158/158

f 161/161/161 150/150/150 147/147/147

f 160/160/160 159/159/159 162/162/162

f 159/159/159 161/161/161 162/162/162

f 160/160/160 162/162/162 163/163/163

f 162/162/162 164/164/164 163/163/163

f 164/164/164 162/162/162 165/165/165

f 161/161/161 165/165/165 162/162/162

f 165/165/165 166/166/166 164/164/164

f 165/165/165 161/161/161 167/167/167

f 161/161/161 147/147/147 167/167/167

f 166/166/166 165/165/165 168/168/168

f 167/167/167 168/168/168 165/165/165

f 168/168/168 169/169/169 166/166/166

f 167/167/167 147/147/147 170/170/170

f 169/169/169 168/168/168 171/171/171

f 171/171/171 172/172/172 169/169/169

f 168/168/168 167/167/167 173/173/173

f 173/173/173 171/171/171 168/168/168

f 174/174/174 173/173/173 167/167/167

f 167/167/167 170/170/170 174/174/174

f 171/171/171 173/173/173 175/175/175

f 173/173/173 174/174/174 175/175/175

f 171/171/171 175/175/175 174/174/174

f 172/172/172 171/171/171 176/176/176

f 174/174/174 176/176/176 171/171/171

f 170/170/170 176/176/176 174/174/174

f 176/176/176 177/177/177 172/172/172

f 170/170/170 178/178/178 176/176/176

f 177/177/177 176/176/176 178/178/178

f 147/147/147 178/178/178 170/170/170

f 178/178/178 179/179/179 177/177/177

f 178/178/178 147/147/147 180/180/180

f 179/179/179 178/178/178 180/180/180

