[gd_resource type="Resource" script_class="GameMode" load_steps=2 format=3 uid="uid://rrw6expaw0ok"]

[ext_resource type="Script" path="res://Core/GameModes/game_mode.gd" id="1_cdgwx"]

[resource]
script = ExtResource("1_cdgwx")
mode_name = 0
traps_enabled = false
scale_speed = false
base_prompt_speed = 1.3
speed_scale_amount = 0.0
score_step_amount = 0
score_step_ceiling = 0
max_tries = 3
